Complex class test

Printing original values.
d1 = 1.0
d2 = 0.0
d3 = -1.9
d4 = 3.1
d5 = 4.5E-90
d6 = NaN
c1 = 1.0+1.0i
c2 = -5.1+6.4i
c3 = 3.5-1.5i
c4 = -3.6-7.6i
c5 = 3.1
c6 = 2.4i
c7 = -5.4
c8 = -4.3i
c9 = 0.0
c10 = -1.0-1.0i
c11 = -5.342E91-2.3E-49i
c13 = NaN
c14 = NaN+NaNi
c15 = NaN+NaNi

parseComplex() test
+7 = 7.0
-4 = -4.0
1.0 = 1.0
-3.5 = -3.5
14i = 14.0i
-89i = -89.0i
2.3i = 2.3i
-4.5 i = -4.5i
+4.2 + 12.3i = 4.2+12.3i
-1.9 + 9.3 i = -1.9+9.3i
-11 - 0.003i = -11.0-0.003i
-1.9 + 9.3 i = -1.9+9.3i
+4.321e82 - 2.43e-60i = 4.321E82-2.43E-60i
(1,1) = 1.0+1.0i
( +2, -7.3) = 2.0-7.3i
(-0.02, +4.5 ) = -0.02+4.5i
( -34.02, -4.5 ) = -34.02-4.5i
( -3.2e8, 4.3e7) = -320000000.0+43000000.0i
[null pointer] caused a NullPointerException
[empty string] caused a NumberFormatException
-13i-14.0 caused a NumberFormatException
32-6.5i+3 caused a NumberFormatException
() caused a NumberFormatException
(-6) caused a NumberFormatException

Basic Arithmetic
-c1 = -1.0-1.0i
-c6 = -2.4i
-c9 = -0.0

c1 + d1 = 2.0+1.0i
d1 + c1 = 2.0+1.0i
c1 + c2 = -4.1+7.4i
c11 + d5 = -5.342E91-2.3E-49i

d1 + c1 = 2.0+1.0i
c1 + c2 = -4.1+7.4i
c11 + d5 = -5.342E91-2.3E-49i

c12 = 100.0+1000.0i
c12 += d3;
c12 = 98.1+1000.0i

c12 = 98.1+1000.0i
c12 += c1;
c12 = 99.1+1001.0i

c1 - d1 = 1.0i
d1 - c1 = -1.0i
c1 - c2 = 6.1-5.4i
d5 - c11 = 5.342E91+2.3E-49i

c12 = 99.1+1001.0i
c12 -= d3;
c12 = 101.0+1001.0i

c12 = 101.0+1001.0i
c12 -= c1;
c12 = 100.0+1000.0i

c1 * d3 = -1.9-1.9i
d3 * c1 = -1.9-1.9i
c1 * c2 = -11.5+1.3i
c11 * c11 = 2.8536964E183+2.45732E43i

c12 = 100.0+1000.0i
c12 *= d3;
c12 = -190.0-1900.0i

c12 = -190.0-1900.0i
c12 *= c1;
c12 = 1710.0-2090.0i

c1 / d3 = -0.5263157895-0.5263157895i
d3 / c1 = -0.95+0.95i
c1 / c2 = 0.01941167687-0.17171868i
d5 / c11 = -8.423811307E-182+3.606679215E-322i

c12 = 1710.0-2090.0i
c12 /= d3;
c12 = -900.0+1100.0i

c12 = -900.0+1100.0i
c12 /= c1;
c12 = 100.0+1000.0i

c1 / d2 = Infinity+Infinityi
c2 / d2 = -Infinity+Infinityi
c3 / d2 = Infinity-Infinityi
c4 / d2 = -Infinity-Infinityi
c5 / d2 = Infinity
c6 / d2 = NaN+Infinityi
c7 / d2 = -Infinity
c8 / d2 = NaN-Infinityi
c9 / d2 = NaN
c10 / d2 = -Infinity-Infinityi
c11 / d2 = -Infinity-Infinityi

d1 / c9 = Infinity
d2 / c9 = NaN
d3 / c9 = -Infinity
d4 / c9 = Infinity
d5 / c9 = Infinity

c1 / c9 = Infinity+Infinityi
c2 / c9 = -Infinity+Infinityi
c3 / c9 = Infinity-Infinityi
c4 / c9 = -Infinity-Infinityi
c5 / c9 = Infinity
c6 / c9 = NaN+Infinityi
c7 / c9 = -Infinity
c8 / c9 = NaN-Infinityi
c9 / c9 = NaN
c10 / c9 = -Infinity-Infinityi
c11 / c9 = -Infinity-Infinityi

Equality / Inequality
d1 == c1 is false
c1 == d1 is false
c5 == d4 is true
d4 == c5 is true
d1 != c1 is true
c1 != d1 is true
c1 == (-c10) is true
c1 != (-c10) is false
c1 == c2 is false
c1 != c2 is true

d6 == c13 is false
c14 == c15 is false
d6 != c13 is true
c14 != c15 is true

Complex Conjugate
~c1 = 1.0-1.0i
c1.conj() = 1.0-1.0i
~c5 = 3.1
c5.conj() = 3.1
~c9 = 0.0
c9.conj() = 0.0

Exponentiation / Logarithms
c2^d1 = -5.1+6.4i
d1^c2 = 1.0
c2^c4 = 6201.741642+11592.17646i
c5^d2 = 1.0
d2^c5 = 0.0
c5^c4 = -0.01153868124-0.01251893973i
c2^d4 = 529.200183+421.0419946i
d4^c2 = 0.001794620947+0.002551330676i
c2^c4 = 6201.741642+11592.17646i
c9^d4 = 0.0
d4^c9 = 1.0
c9^c4 = 0.0
c9^d2 = NaN
c9^c9 = NaN
c11^c3 = Infinity-Infinityi

c12 = 100.0+1000.0i
c12 ^= d4;
c12 = -306595073.8-2002944078.0i
c12 ^= (1/d4);
c12 = 853.7651244-530.1746055i

c12 = 853.7651244-530.1746055i
c12 ^= c1;
c12 = 1747.092352+129.2382371i
c12 ^= (1/c1);
c12 = -36.8945363+22.91092207i

c1.exp() = 1.46869394+2.287355287i
c2.exp() = 0.006055196742+0.0007105709644i
c3.exp() = 2.342494404-33.03249731i
c4.exp() = 0.006865354201-0.02644716847i
c5.exp() = 22.19795128
c6.exp() = -0.7373937155+0.6754631806i
c7.exp() = 0.004516580943
c8.exp() = -0.4007991721+0.9161659367i
c9.exp() = 1.0
c10.exp() = 0.1987661103-0.3095598757i
c11.exp() = 0.0

c1.log() = 0.3465735903+0.7853981634i
c2.log() = 2.102122379+2.243628874i
c3.log() = 1.337074325-0.4048917863i
c4.log() = 2.129364209-2.01317055i
c5.log() = 1.131402111
c6.log() = 0.8754687374+1.570796327i
c7.log() = 1.686398954+3.141592654i
c8.log() = 1.458615023-1.570796327i
c9.log() = -Infinity
c10.log() = 0.3465735903-2.35619449i
c11.log() = 211.2108436-3.141592654i

c1.exp().log() = 1.0+1.0i
c1.log().exp() = 1.0+1.0i
c2.exp().log() = -5.1+0.1168146928i
c2.log().exp() = -5.1+6.4i
c9.exp().log() = 0.0
c9.log().exp() = 0.0
c11.exp().log() = -Infinity

c1.sqrt() = 1.098684113+0.4550898606i
c2.sqrt() = 1.241676291+2.577161231i
c3.sqrt() = 1.911529041-0.3923560583i
c4.sqrt() = 1.550728606-2.45046102i
c5.sqrt() = 1.760681686
c6.sqrt() = 1.095445115+1.095445115i
c7.sqrt() = 2.323790008i
c8.sqrt() = 1.46628783-1.46628783i
c9.sqrt() = 0.0
c10.sqrt() = 0.4550898606-1.098684113i
c11.sqrt() = -7.308898686E45i

c1.sin() = 1.298457581+0.6349639148i
c2.sin() = 278.5992554+113.7417004i
c3.sin() = -0.8251858377+1.993977985i
c4.sin() = 442.1213774+895.9492688i
c5.sin() = 0.04158066243
c6.sin() = 5.466229214i
c7.sin() = 0.7727644876
c8.sin() = -36.84311257i
c9.sin() = 0.0
c10.sin() = -1.298457581-0.6349639148i

c1.cos() = 0.8337300251-0.9888977058i
c2.cos() = 113.7423285-278.5977171i
c3.cos() = -2.202929715-0.7469155199i
c4.cos() = -895.9497176+442.1211559i
c5.cos() = -0.9991351503
c6.cos() = 5.556947167
c7.cos() = 0.6346928759
c8.cos() = 36.85668113
c9.cos() = 1.0
c10.cos() = 0.8337300251-0.9888977058i

c1.tan() = 0.2717525853+1.083923327i
c2.tan() = 3.864404923E-06+1.000003944i
c3.tan() = 0.06071087169-0.9257326109i
c4.tan() = -3.975507107E-07-0.9999996953i
c5.tan() = -0.04161665459
c6.tan() = 0.9836748577i
c7.tan() = 1.217540825
c8.tan() = -0.9996318562i
c9.tan() = 0.0
c10.tan() = -0.2717525853-1.083923327i

c1.asin() = 0.6662394325+1.061275062i
c2.asin() = -0.6692029672+2.796121607i
c3.asin() = 1.152962979-2.018366361i
c4.asin() = -0.439657251-2.824754371i
c5.asin() = 1.570796327-1.797456568i
c6.asin() = 1.609437912i
c7.asin() = -1.570796327+2.370860342i
c8.asin() = -2.165016764i
c9.asin() = 0.0
c10.asin() = -0.6662394325-1.061275062i
c11.asin() = NaN-Infinityi

c1.acos() = 0.9045568943-1.061275062i
c2.acos() = 2.239999294-2.796121607i
c3.acos() = 0.417833348+2.018366361i
c4.acos() = 2.010453578+2.824754371i
c5.acos() = 1.797456568i
c6.acos() = 1.570796327-1.609437912i
c7.acos() = 3.141592654-2.370860342i
c8.acos() = 1.570796327+2.165016764i
c9.acos() = 1.570796327
c10.acos() = 2.237035759+1.061275062i
c11.acos() = NaN+NaNi

c1.atan() = 1.017221968+0.4023594781i
c2.atan() = -1.494095813+0.09529657054i
c3.atan() = 1.331620111-0.09801052194i
c4.atan() = -1.519343608-0.1075983994i
c5.atan() = 1.258754205
c6.atan() = -1.570796327+0.4436515975i
c7.atan() = -1.38768551
c8.atan() = 1.570796327-0.236892176i
c9.atan() = 0.0
c10.atan() = -1.017221968-0.4023594781i
c11.atan() = -1.570796327

c1.sinh() = 0.6349639148+1.298457581i
c2.sinh() = -81.44901474+9.558666722i
c3.sinh() = 1.170179163-16.53130952i
c4.sinh() = -4.594400635-17.72529912i
c5.sinh() = 11.07645104
c6.sinh() = 0.6754631806i
c7.sinh() = -110.7009498
c8.sinh() = 0.9161659367i
c9.sinh() = 0.0
c10.sinh() = -0.6349639148-1.298457581i
c11.sinh() = -Infinity-Infinityi

c1.cosh() = 0.8337300251+0.9888977058i
c2.cosh() = 81.45506994-9.557956151i
c3.cosh() = 1.172315241-16.50118778i
c4.cosh() = 4.60126599+17.69885196i
c5.cosh() = 11.12150024
c6.cosh() = -0.7373937155
c7.cosh() = 110.7054664
c8.cosh() = -0.4007991721
c9.cosh() = 1.0
c10.cosh() = 0.8337300251+0.9888977058i
c11.cosh() = Infinity+Infinityi

c1.tanh() = 1.083923327+0.2717525853i
c2.tanh() = -0.9999276815+1.720934333E-05i
c3.tanh() = 1.001807111-0.0002578348904i
c4.tanh() = -1.001305227-0.0007272250777i
c5.tanh() = 0.9959493592
c6.tanh() = -0.9160142897i
c7.tanh() = -0.9999592018
c8.tanh() = -2.285847877i
c9.tanh() = 0.0
c10.tanh() = -1.083923327-0.2717525853i
c11.tanh() = NaN+NaNi

c1.asinh() = 1.061275062+0.6662394325i
c2.asinh() = -2.79445515+0.8943160073i
c3.asinh() = 2.042121665-0.392840805i
c4.asinh() = -2.820275812-1.12566838i
c5.asinh() = 1.849603679
c6.asinh() = 1.522079367+1.570796327i
c7.asinh() = -2.388011322
c8.asinh() = -2.137958619-1.570796327i
c9.asinh() = 0.0
c10.asinh() = -1.061275062-0.6662394325i
c11.asinh() = Infinity+0.7853981634i

c1.acosh() = 1.061275062+0.9045568943i
c2.acosh() = 2.796121607+2.239999294i
c3.acosh() = 2.018366361-0.417833348i
c4.acosh() = 2.824754371-2.010453578i
c5.acosh() = 1.797456568
c6.acosh() = 1.609437912+1.570796327i
c7.acosh() = 2.370860342+3.141592654i
c8.acosh() = 2.165016764-1.570796327i
c9.acosh() = 1.570796327i
c10.acosh() = 1.061275062-2.237035759i
c11.acosh() = 211.9039908-3.141592654i

c1.atanh() = 0.4023594781+1.017221968i
c2.atanh() = -0.07560408311+1.474973169i
c3.atanh() = 0.2433622864-1.461461854i
c4.atanh() = -0.05036485697-1.463468288i
c5.atanh() = 0.3345248145+1.570796327i
c6.atanh() = 1.176005207i
c7.atanh() = -0.1873467247+1.570796327i
c9.atanh() = 0.0
c10.atanh() = -0.4023594781-1.017221968i
c11.atanh() = 1.570796327i

c1.abs() = 1.414213562
c2.abs() = 8.183520025
c3.abs() = 3.807886553
c4.abs() = 8.409518417
c5.abs() = 3.1
c6.abs() = 2.4
c7.abs() = 5.4
c8.abs() = 4.3
c9.abs() = 0.0
c10.abs() = 1.414213562
c11.abs() = 5.342E91

c1.absSquare() = 2.0
c2.absSquare() = 66.97
c3.absSquare() = 14.5
c4.absSquare() = 70.72
c5.absSquare() = 9.61
c6.absSquare() = 5.76
c7.absSquare() = 29.16
c8.absSquare() = 18.49
c9.absSquare() = 0.0
c10.absSquare() = 2.0
c11.absSquare() = 2.8536964E183

c1.arg() = 0.7853981634
c2.arg() = 2.243628874
c3.arg() = -0.4048917863
c4.arg() = -2.01317055
c5.arg() = 0.0
c6.arg() = 1.570796327
c7.arg() = 3.141592654
c8.arg() = -1.570796327
c9.arg() = 0.0
c10.arg() = -2.35619449
c11.arg() = -3.141592654

