overflow produces infinity: 1.0E308*10==Infinity
1.0/0.0 produces +infinity: Infinity
Infinity
-1.0/0.0 produces -infinity: -Infinity
-Infinity
gradual underflow: 3.141592653589793E-305
       3.1415926535898E-310 3.14159265E-315 3.142E-320 0.0
0.0/0.0 is Not-a-Number: NaN
inexact results with float: 0 41 47 55 61 82 83 94 97
inexact results with double: 0 49 98
cast to int rounds toward 0: 12345 -12345
