s.isLocal()=true
s instanceof String =      true
s instanceof String local =true
s instanceof Object =      true
s instanceof Object local =true
s2 instanceof String =      false
s2 instanceof String local =false
s2 instanceof Object =      false
s2 instanceof Object local =false
o1.isLocal()=true
o1 instanceof String =      true
o1 instanceof String local =true
o1 instanceof Object =      true
o1 instanceof Object local =true
o2 instanceof String =      false
o2 instanceof String local =false
o2 instanceof Object =      false
o2 instanceof Object local =false
