class java.lang.Object
true
null
Class name: java.lang.String
isInterface(): false
extends:
    Class name: java.lang.Object
    isInterface(): false
implements:
    Class name: java.lang.CharSequence
    isInterface(): true
    Class name: java.lang.Comparable
    isInterface(): true
    Class name: java.io.Serializable
    isInterface(): true
Class name: java.lang.Class
isInterface(): false
extends:
    Class name: java.lang.Object
    isInterface(): false
implements:
    Class name: java.io.Serializable
    isInterface(): true
Class name: java.lang.ArrayIndexOutOfBoundsException
isInterface(): false
extends:
    Class name: java.lang.IndexOutOfBoundsException
    isInterface(): false
    extends:
        Class name: java.lang.RuntimeException
        isInterface(): false
        extends:
            Class name: java.lang.Exception
            isInterface(): false
            extends:
                Class name: java.lang.Throwable
                isInterface(): false
                extends:
                    Class name: java.lang.Object
                    isInterface(): false
                implements:
                    Class name: java.io.Serializable
                    isInterface(): true
Class name: ti.io.BulkRandomAccessFile
isInterface(): false
extends:
    Class name: java.io.RandomAccessFile
    isInterface(): false
    extends:
        Class name: java.lang.Object
        isInterface(): false
    implements:
        Class name: java.io.DataInput
        isInterface(): true
        Class name: java.io.DataOutput
        isInterface(): true
implements:
    Class name: ti.io.BulkDataOutput
    isInterface(): true
    implements:
        Class name: java.io.DataOutput
        isInterface(): true
    Class name: ti.io.BulkDataInput
    isInterface(): true
    implements:
        Class name: java.io.DataInput
        isInterface(): true
Class name: java.lang.InstantiationError
isInterface(): false
extends:
    Class name: java.lang.IncompatibleClassChangeError
    isInterface(): false
    extends:
        Class name: java.lang.LinkageError
        isInterface(): false
        extends:
            Class name: java.lang.Error
            isInterface(): false
            extends:
                Class name: java.lang.Throwable
                isInterface(): false
                extends:
                    Class name: java.lang.Object
                    isInterface(): false
                implements:
                    Class name: java.io.Serializable
                    isInterface(): true
Testing class literals..
Class name: java.lang.Object
isInterface(): false
Class name: java.lang.ArrayIndexOutOfBoundsException
isInterface(): false
extends:
    Class name: java.lang.IndexOutOfBoundsException
    isInterface(): false
    extends:
        Class name: java.lang.RuntimeException
        isInterface(): false
        extends:
            Class name: java.lang.Exception
            isInterface(): false
            extends:
                Class name: java.lang.Throwable
                isInterface(): false
                extends:
                    Class name: java.lang.Object
                    isInterface(): false
                implements:
                    Class name: java.io.Serializable
                    isInterface(): true
Class name: Imm
isInterface(): false
Class name: ti.domains.tiRectDomain2
isInterface(): false
Class name: int
isInterface(): false
Class name: int
isInterface(): false
Class name: java.lang.Integer
isInterface(): false
extends:
    Class name: java.lang.Number
    isInterface(): false
    extends:
        Class name: java.lang.Object
        isInterface(): false
    implements:
        Class name: java.io.Serializable
        isInterface(): true
implements:
    Class name: java.lang.Comparable
    isInterface(): true
Class name: void
isInterface(): false
Class name: void
isInterface(): false
Class name: java.lang.Void
isInterface(): false
extends:
    Class name: java.lang.Object
    isInterface(): false
Class name: foo< int >
isInterface(): false
extends:
    Class name: java.lang.Object
    isInterface(): false
Class name: O1
isInterface(): false
extends:
    Class name: java.lang.Object
    isInterface(): false
Class name: O2
isInterface(): false
extends:
    Class name: O1
    isInterface(): false
    extends:
        Class name: java.lang.Object
        isInterface(): false
Class name: O3
isInterface(): false
extends:
    Class name: O2
    isInterface(): false
    extends:
        Class name: O1
        isInterface(): false
        extends:
            Class name: java.lang.Object
            isInterface(): false
Class name: O4
isInterface(): false
extends:
    Class name: O3
    isInterface(): false
    extends:
        Class name: O2
        isInterface(): false
        extends:
            Class name: O1
            isInterface(): false
            extends:
                Class name: java.lang.Object
                isInterface(): false
Class name: O5
isInterface(): false
extends:
    Class name: java.lang.Object
    isInterface(): false
Class name: O6
isInterface(): false
extends:
    Class name: O5
    isInterface(): false
    extends:
        Class name: java.lang.Object
        isInterface(): false
Class name: O6
isInterface(): false
extends:
    Class name: O5
    isInterface(): false
    extends:
        Class name: java.lang.Object
        isInterface(): false
java.io.EOFException: hello
