e104.java:30:14: Attempted to reference the template list outside of a template instantiation.
e104.java:31:23: Attempted to reference the template list outside of a template instantiation.
e104.java:32:32: Attempted to reference the template list outside of a template instantiation.
e104.java:32:32: no matching constructor for ti.internal.tiUnknown(int, String local, null)
e104.java:31:23: no matching constructor for ti.internal.tiUnknown(int, String local, tiUnknown local)
e104.java:30:14: no matching constructor for ti.internal.tiUnknown(int, String local, tiUnknown local)
e104.java:29:16: l is not assignable with tiUnknown local
