e15.java:10:6: && expects a boolean, got int
e15.java:10:6: && expects a boolean, got int
e15.java:11:6: boolean is not an index type for int []
e15.java:12:6: Type boolean is not an array
e15.java:13:14: new array dimension must be RectDomains or promoteable to int, got long
e15.java:14:7: ~ expects an integer, got boolean
e15.java:15:7: ! expects a boolean, got int
e15.java:16:14: cast requires that int be castable to Object
e15.java:17:6: + expects a number, got Object
e15.java:18:6: + expects a number, got Object
e15.java:19:6: instanceof requires that int be castable to Object
e15.java:20:6: ?: expects a boolean, got int
e15.java:21:2: target is not assignable
e15.java:22:2: += expects a number, got Object
e15.java:23:2: += expects a number, got Object
