e35.java:14:1: overriding of method i1.f incompatibly changes return type
e35.java:14:1: class b has abstract methods: must be declared abstract
e35.java:14:1: method i1.f is abstract
e35.java:14:1: method i2.f is abstract
