e77.java:12:3: field b.x1 is not assignable with a
e77.java:13:3: field b.x2 is not assignable with a
e77.java:20:5: local field y cannot be assigned when accessed by a global reference
e77.java:21:5: arrays of local references cannot be assigned when accessed by a global array reference
