e93.java:5:7: type expected
e93.java:6:7: type expected
e93.java:7:7: type expected
e93.java:8:7: type expected
e93.java:9:7: type expected
e93.java:14:7: Missing index expression
e93.java:15:5: Unexpected qualifiers local
e93.java:16:5: Unexpected qualifiers local
e93.java:17:8: Unexpected qualifiers local
e93.java:18:10: Unexpected identifier 'e'
e93.java:19:10: Unexpected identifier 'D'
e93.java:20:8: unexpected identifier 'd'
e93.java:24:9: No array size specified
e93.java:25:13: new: array type specifier followed by expression
e93.java:26:13: Unexpected expression list
e93.java:26:9: No array size specified
e93.java:28:20: d undefined in class T
e93.java:29:17: M undefined in class T
e93.java:14:5: bad type in assignment (int []=int)
e93.java:15:5: bad type in assignment (int []=int)
e93.java:27:17: new array dimension must be RectDomains or promoteable to int, got double
e93.java:28:20: cast requires that int be castable to T
e93.java:28:20: new array dimension must be RectDomains or promoteable to int, got T
e93.java:29: Titanium array arity must be a constant >= 1
