pr637.java:6:32: While instantiating template: class U4a< int >:
pr637.java:12:14: class undefined in primitive type int
pr637.java:6:32: While instantiating template: class U4a< int >:
pr637.java:12:20: cannot select toString from non-reference type int
pr637.java:6:32: While instantiating template: class U4a< int >:
pr637.java:12:5: expected type String in return, got int
