t1.java:2:3: Ti built-in types (Point<N>) above 3-d not supported in this compiler installation.
t1.java:4:3: Ti built-in types (Point<N>) above 3-d not supported in this compiler installation.
t1.java:7:3: Ti built-in types (RectDomain<N>) above 3-d not supported in this compiler installation.
t1.java:8:3: Ti built-in types (Domain<N>) above 3-d not supported in this compiler installation.
t1.java:9:3: Ti built-in types (Domain<N>) above 3-d not supported in this compiler installation.
t1.java:9:19: Ti built-in types (Domain<N>) above 3-d not supported in this compiler installation.
