ti34.java:6:13: While instantiating template: interface r5a< 0 >:
ti34.java:10:43: While instantiating template: interface r5a< 0x1 >:
ti34.java:10:43: While instantiating template: interface r5a< 0x2 >:
ti34.java:10:43: While instantiating template: interface r5a< 0x3 >:
ti34.java:10:43: While instantiating template: interface r5a< 0x4 >:
ti34.java:10:43: While instantiating template: interface r5a< 0x5 >:
ti34.java:10:43: While instantiating template: interface r5a< 0x6 >:
ti34.java:10:43: While instantiating template: interface r5a< 0x7 >:
ti34.java:10:43: While instantiating template: interface r5a< 0x8 >:
ti34.java:10:43: While instantiating template: interface r5a< 0x9 >:
ti34.java:10:43: While instantiating template: interface r5a< 0xa >:
ti34.java:10:43: While instantiating template: interface r5a< 0xb >:
ti34.java:10:43: While instantiating template: interface r5a< 0xc >:
ti34.java:10:43: While instantiating template: interface r5a< 0xd >:
ti34.java:10:43: While instantiating template: interface r5a< 0xe >:
ti34.java:10:43: While instantiating template: interface r5a< 0xf >:
ti34.java:10:43: While instantiating template: interface r5a< 0x10 >:
ti34.java:10:27: inheritance depth exceeds maximum of 17
ti34.java:6:13: While instantiating template: interface r5a< 0 >:
ti34.java:10:43: While instantiating template: interface r5a< 0x1 >:
ti34.java:10:43: While instantiating template: interface r5a< 0x2 >:
ti34.java:10:43: While instantiating template: interface r5a< 0x3 >:
ti34.java:10:43: While instantiating template: interface r5a< 0x4 >:
ti34.java:10:43: While instantiating template: interface r5a< 0x5 >:
ti34.java:10:43: While instantiating template: interface r5a< 0x6 >:
ti34.java:10:43: While instantiating template: interface r5a< 0x7 >:
ti34.java:10:43: While instantiating template: interface r5a< 0x8 >:
ti34.java:10:43: While instantiating template: interface r5a< 0x9 >:
ti34.java:10:43: While instantiating template: interface r5a< 0xa >:
ti34.java:10:43: While instantiating template: interface r5a< 0xb >:
ti34.java:10:43: While instantiating template: interface r5a< 0xc >:
ti34.java:10:43: While instantiating template: interface r5a< 0xd >:
ti34.java:10:43: While instantiating template: interface r5a< 0xe >:
ti34.java:10:43: While instantiating template: interface r5a< 0xf >:
ti34.java:10:43: While instantiating template: interface r5a< 0x10 >:
ti34.java:10:27:  (use "-inheritance-depth <NN>" to increase the maximum)
