Error at PR781b.ti:9:19: Proc 0 tried to broadcast a pointer to a private region object
Error at PR781b.ti:9:19: Proc 0 tried to broadcast a pointer to a private region object
Error at PR781b.ti:9:19: Proc 0 tried to broadcast a pointer to a private region object
Error at PR781b.ti:9:19: Proc 0 tried to broadcast a pointer to a private region object
Error at PR781b.ti:9:19: Proc 0 tried to broadcast a pointer to a private region object
Error at PR781b.ti:9:19: Proc 0 tried to broadcast a pointer to a private region object
Error at PR781b.ti:9:19: Proc 0 tried to broadcast a pointer to a private region object
Error at PR781b.ti:9:19: Proc 0 tried to broadcast a pointer to a private region object
