Error at PR781.ti:10:16: Proc 0 tried to exchange a pointer to a private region object
Error at PR781.ti:10:16: Proc 0 tried to exchange a pointer to a private region object
Error at PR781.ti:10:16: Proc 0 tried to exchange a pointer to a private region object
Error at PR781.ti:10:16: Proc 0 tried to exchange a pointer to a private region object
Error at PR781.ti:10:16: Proc 0 tried to exchange a pointer to a private region object
Error at PR781.ti:10:16: Proc 0 tried to exchange a pointer to a private region object
Error at PR781.ti:10:16: Proc 0 tried to exchange a pointer to a private region object
Error at PR781.ti:10:16: Proc 0 tried to exchange a pointer to a private region object
