test.ti:7:46: template parameter ignored is not a constant expression of type int or is in a circularity
test.ti:7:1: class Derived in circular definition
test.ti:16:30: value undefined in class Derived
gmake: *** [all] Error 1
