proc 0
k.length = 7; k[1] = 0
a.length = 3; a[1] = 4.0
b.length = 3; b[1] = 7.0
123
12jll[1,9].length = 10
jll[1,10].length = 10
jll[2,9].length = 10
jll[2,10].length = 10
35467j[10,10].length = 5
j[10,11].length = 5
