Point p=[0,0,0]:	[0,0,0]
Point p+=[1,1,1]:	[1,1,1]
Point p*=[2,4,8]:	[2,4,8]
Point p*=5:      	[10,20,40]
Point p/=2:      	[5,10,20]
Point p/=[1,5,2]:	[5,2,10]
Point p-=3:      	[2,-1,7]
Point p+=7:      	[9,6,14]
Point p-=[10,20,30]:	[-1,-14,-16]

Point p=[0,0,0]:	[0,0,0]
Point p=p+[1,1,1]:	[1,1,1]
Point p=p*[2,4,8]:	[2,4,8]
Point p=p*5:      	[10,20,40]
Point p=p/2:      	[5,10,20]
Point p=p/[1,5,2]:	[5,2,10]
Point p=p-3:      	[2,-1,7]
Point p=p+7:      	[9,6,14]
Point p=p-[10,20,30]:	[-1,-14,-16]

Point p=20+p:    	[19,6,4]
Point p=4*p:     	[76,24,16]
Point p=100-p:   	[24,76,84]
Point p=1000/p:   	[41,13,11]
