 -------------- Beginning byte test.. -------------- 
Seeking..
Reading..
Writing..
Re-reading..
Verifying..
Verified.
 -------------- Beginning short test.. -------------- 
Seeking..
Reading..
Writing..
Re-reading..
Verifying..
Verified.
 -------------- Beginning int test.. -------------- 
Seeking..
Reading..
Writing..
Re-reading..
Verifying..
Verified.
 -------------- Beginning float test.. -------------- 
Seeking..
Reading..
Writing..
Re-reading..
Verifying..
Verified.
 -------------- Beginning long test.. -------------- 
Seeking..
Reading..
Writing..
Re-reading..
Verifying..
Verified.
 -------------- Beginning immutable test 1.. -------------- 
Seeking..
Reading..
Writing..
Re-reading..
Verifying..
Verified.
 -------------- Beginning immutable test 2.. -------------- 
Seeking..
Reading..
Writing..
Re-reading..
Verifying..
Verified.
 -------------- Beginning byte consistency test.. -------------- 
Seeking..
Reading..
Reference Read..
Verifying..
Verified.
Writing..
Reference Read..
Verifying..
Verified.
 -------------- Beginning short consistency test.. -------------- 
Seeking..
Reading..
Reference Read..
Verifying..
Verified.
Writing..
Reference Read..
Verifying..
Verified.
 -------------- Beginning int consistency test.. -------------- 
Seeking..
Reading..
Reference Read..
Verifying..
Verified.
Writing..
Reference Read..
Verifying..
Verified.
 -------------- Beginning long consistency test.. -------------- 
Seeking..
Reading..
Reference Read..
Verifying..
Verified.
Writing..
Reference Read..
Verifying..
Verified.
 -------------- Beginning miscellaneous tests.. -------------- 
Seeking..
Writing..
Seeking..
Reading..
Verifying..
Verified.
Seeking..
Writing..
Seeking..
Reading..
Verifying..
Verified.
Seeking..
Testing EOF..
EOF Test Passed.
Testing Legacy EOF..
Legacy EOF Test Passed.
Testing array type checking..
Array type checking Test Passed.
